Assignment accessors — featureData • assignments
…
## Return feature data
featureData(mf_assignments)
#> # A tibble: 60 × 10
#>    n191.01962 n192.02306 n193.…¹ n226.…² n228.…³ n228.…⁴ n231.…⁵ n384.…⁶ n385.…⁷
#>         <dbl>      <dbl>   <dbl>   <dbl>   <dbl>   <dbl>   <dbl>   <dbl>   <dbl>
#>  1     0.109     0.00401 6.09e-4 4.17e-4 1.35e-3 9.12e-5 1.22e-3 3.11e-4 3.10e-5
#>  2     0.0955    0.00346 4.66e-4 3.06e-4 1.10e-3 8.47e-5 8.31e-4 1.00e-4 8.88e-7
#>  3     0.109     0.00418 6.37e-4 2.94e-4 1.13e-3 8.79e-5 1.26e-3 3.64e-4 8.01e-5
#>  4     0.102     0.00360 5.16e-4 3.66e-4 1.07e-3 1.07e-4 1.13e-3 2.06e-4 6.73e-5
#>  5     0.0956    0.00315 5.20e-4 4.87e-4 8.73e-4 1.11e-4 8.40e-4 1.72e-4 0      
#>  6     0.0940    0.00350 4.40e-4 3.11e-4 1.12e-3 2.28e-5 1.06e-3 1.52e-4 4.97e-5
#>  7     0.128     0.00578 7.84e-4 3.33e-4 1.13e-3 1.37e-4 1.40e-3 5.30e-4 1.49e-4
#>  8     0.0890    0.00345 4.83e-4 3.65e-4 1.04e-3 1.00e-4 9.51e-4 1.89e-4 8.42e-5
#>  9     0.0887    0.00317 4.69e-4 4.63e-4 8.29e-4 1.51e-4 9.22e-4 2.25e-4 4.32e-5
#> 10     0.0996    0.00369 5.39e-4 4.90e-4 8.66e-4 1.93e-4 1.00e-3 2.55e-4 1.63e-5
#> # … with 50 more rows, 1 more variable: p208.04518 <dbl>, and abbreviated
#> #   variable names ¹​n193.02388, ²​n226.99693, ³​n228.97636, ⁴​n228.99274,
#> #   ⁵​n231.00069, ⁶​n384.0495, ⁷​n385.04874
…
## Return relationships
relationships(mf_assignments)
#> # A tibble: 52 × 19
#>    Feature1   Feature2 Mode1 Mode2 `m/z1` `m/z2` Reten…¹ Reten…² Reten…³ Adduct1
#>    <chr>      <chr>    <chr> <chr>  <dbl>  <dbl>   <dbl>   <dbl>   <dbl> <chr>  
#>  1 n191.01962 p208.04… n     p       191.   208.      NA      NA      NA [M-H]1-
#>  2 n191.01962 p208.04… n     p       191.   208.      NA      NA      NA [M-H]1-
#>  3 n191.01962 p208.04… n     p       191.   208.      NA      NA      NA [M-H]1-
#>  4 n191.01962 p208.04… n     p       191.   208.      NA      NA      NA [M-H]1-
#>  5 n191.01962 p208.04… n     p       191.   208.      NA      NA      NA [M+K-2…
#>  6 n191.01962 p208.04… n     p       191.   208.      NA      NA      NA [M+K-2…
#>  7 n191.01962 p208.04… n     p       191.   208.      NA      NA      NA [M+K-2…
#>  8 n191.01962 p208.04… n     p       191.   208.      NA      NA      NA [M+K-2…
#>  9 n191.01962 p208.04… n     p       191.   208.      NA      NA      NA [M+K-2…
#> 10 n191.01962 p208.04… n     p       191.   208.      NA      NA      NA [M+K-2…
#> # … with 42 more rows, 9 more variables: Adduct2 <chr>, Isotope1 <chr>,
#> #   Isotope2 <chr>, Transformation1 <chr>, Transformation2 <chr>,
#> #   log2IntensityRatio <dbl>, coefficient <dbl>, Error <dbl>, ID <int>, and
#> #   abbreviated variable names ¹​RetentionTime1, ²​RetentionTime2,
#> #   ³​RetentionTimeDiff
…
## Return an m/z intensity matrix with the assignments included
## in the column names
assignedData(mf_assignments)
#> # A tibble: 60 × 10
#>    n191.01962 …¹ n192.…² n193.…³ n226.…⁴ n228.…⁵ n228.…⁶ n231.…⁷ n384.…⁸ n385.…⁹
#>            <dbl>   <dbl>   <dbl>   <dbl>   <dbl>   <dbl>   <dbl>   <dbl>   <dbl>
#>  1        0.109  0.00401 6.09e-4 4.17e-4 1.35e-3 9.12e-5 1.22e-3 3.11e-4 3.10e-5
#>  2        0.0955 0.00346 4.66e-4 3.06e-4 1.10e-3 8.47e-5 8.31e-4 1.00e-4 8.88e-7
#>  3        0.109  0.00418 6.37e-4 2.94e-4 1.13e-3 8.79e-5 1.26e-3 3.64e-4 8.01e-5
#>  4        0.102  0.00360 5.16e-4 3.66e-4 1.07e-3 1.07e-4 1.13e-3 2.06e-4 6.73e-5
#>  5        0.0956 0.00315 5.20e-4 4.87e-4 8.73e-4 1.11e-4 8.40e-4 1.72e-4 0      
#>  6        0.0940 0.00350 4.40e-4 3.11e-4 1.12e-3 2.28e-5 1.06e-3 1.52e-4 4.97e-5
#>  7        0.128  0.00578 7.84e-4 3.33e-4 1.13e-3 1.37e-4 1.40e-3 5.30e-4 1.49e-4
#>  8        0.0890 0.00345 4.83e-4 3.65e-4 1.04e-3 1.00e-4 9.51e-4 1.89e-4 8.42e-5
#>  9        0.0887 0.00317 4.69e-4 4.63e-4 8.29e-4 1.51e-4 9.22e-4 2.25e-4 4.32e-5
#> 10        0.0996 0.00369 5.39e-4 4.90e-4 8.66e-4 1.93e-4 1.00e-3 2.55e-4 1.63e-5
#> # … with 50 more rows, 1 more variable: `p208.04518 C6H9NO7  [M+H]1+` <dbl>,
#> #   and abbreviated variable names ¹​`n191.01962 C6H8O7  [M-H]1-`,
#> #   ²​`n192.02306 C6H8O7 13C [M-H]1-`, ³​`n193.02388 C6H8O7 18O [M-H]1-`,
#> #   ⁴​`n226.99693 C6H8O7  [M+Cl]1-`, ⁵​n228.97636,
#> #   ⁶​`n228.99274 C6H8O7  [M+Cl37]1-`, ⁷​n231.00069, ⁸​n384.0495, ⁹​n385.04874
…
