Parameter get and set methods — technique • assignments
…
## Return transformations
transformations(assignment_parameters)
#>  [1] "M - [O] + [NH2]"   "M - [OH] + [NH2]"  "M + [H2]"         
#>  [4] "M - [H2] + [O]"    "M - [H] + [CH3]"   "M - [H] + [NH2]"  
#>  [7] "M - [H] + [OH]"    "M + [H2O]"         "M - [H3] + [H2O]" 
#> [10] "M - [H] + [CHO2]"  "M - [H] + [SO3]"   "M - [H] + [PO3H2]"

## Set transformations
transformations(assignment_parameters) <- "M - [O] + [NH2]"

## Return adduct rules
adductRules(assignment_parameters)
#> # A tibble: 58 × 12
#>    Name   Charge    xM   Add Nelec AddAt RemAt AddEx RemEx Rule  Default Isoto…¹
#>    <chr>   <int> <int> <dbl> <int> <chr> <chr> <chr> <chr> <chr>   <int>   <dbl>
#>  1 [M+3N…      3     1 23.0     -3 NA    NA    Na3   NA    HBA2…       0       0
#>  2 [M+H+…      3     1 15.7     -3 NA    NA    Na2H  NA    HBA2…       0       0
#>  3 [M+2H…      3     1  8.33    -3 NA    NA    NaH2  NA    HBA2…       0       0
#>  4 [M+3H…      3     1  1.01    -3 NA    NA    H3    NA    HBA2…       0       0
#>  5 [2M+3…      2     2 28.0     -2 NA    NA    H8O3  NA    HBA2…       0       0
#>  6 [M+3A…      2     1 62.5     -2 NA    NA    C6H1… NA    HBA2…       0       0
#>  7 [M+2A…      2     1 42.0     -2 NA    NA    C4H8… NA    HBA2…       0       0
#>  8 [M+2N…      2     1 23.0     -2 NA    NA    Na2   NA    HBA2…       1       0
#>  9 [M+AC…      2     1 21.5     -2 NA    NA    C2H5N NA    HBA2…       0       0
#> 10 [M+H+…      2     1 20.0     -2 NA    NA    KH    NA    HBA2…       1       0
#> # … with 48 more rows, and abbreviated variable name ¹​Isotopic
…
